{
  "breadcrumbs": [
    {
      "label": "Company Name",
      "signal_field_name": "q_organization_name",
      "value": "Weave",
      "display_name": "Weave"
    }
  ],
  "partial_results_only": false,
  "has_join": false,
  "disable_eu_prospecting": false,
  "partial_results_limit": 10000,
  "pagination": {
    "page": 1,
    "per_page": 1,
    "total_entries": 1670,
    "total_pages": 1670
  },
  "accounts": [],
  "organizations": [
    {
      "id": "60f3c5498dbf150001e70682",
      "name": "Weave",
      "website_url": "http://www.getweave.com",
      "blog_url": null,
      "angellist_url": null,
      "linkedin_url": "http://www.linkedin.com/company/getweave",
      "twitter_url": "https://twitter.com/getweave",
      "facebook_url": "https://facebook.com/weavecomm/",
      "primary_phone": {
        "number": "+1 888-579-5668",
        "source": "Owler",
        "sanitized_number": "+18885795668"
      },
      "languages": [],
      "alexa_ranking": 158005,
      "phone": "+1 888-579-5668",
      "linkedin_uid": "1271877",
      "founded_year": 2008,
      "publicly_traded_symbol": "WEAV",
      "publicly_traded_exchange": "nasdaq",
      "logo_url": "https://zenprospect-production.s3.amazonaws.com/uploads/pictures/68ae122440c2c6000190c421/picture",
      "crunchbase_url": null,
      "primary_domain": "getweave.com",
      "sanitized_phone": "+18885795668",
      "market_cap": "597.8M",
      "owned_by_organization_id": null,
      "organization_revenue_printed": "213.0M",
      "organization_revenue": 212950000.0,
      "intent_strength": null,
      "show_intent": true,
      "has_intent_signal_account": false,
      "intent_signal_account": null,
      "organization_headcount_six_month_growth": 0.0731958762886598,
      "organization_headcount_twelve_month_growth": 0.1050955414012739,
      "organization_headcount_twenty_four_month_growth": 0.271062271062271
    }
  ],
  "model_ids": [
    "60f3c5498dbf150001e70682"
  ],
  "num_fetch_result": null,
  "derived_params": null
}{
  "breadcrumbs": [
    {
      "label": "Company Name",
      "signal_field_name": "q_organization_name",
      "value": "Coloop",
      "display_name": "Coloop"
    }
  ],
  "partial_results_only": false,
  "has_join": false,
  "disable_eu_prospecting": false,
  "partial_results_limit": 10000,
  "pagination": {
    "page": 1,
    "per_page": 1,
    "total_entries": 4,
    "total_pages": 4
  },
  "accounts": [],
  "organizations": [
    {
      "id": "64523d489cad5100a35209c7",
      "name": "CoLoop",
      "website_url": "http://www.coloop.ai",
      "blog_url": null,
      "angellist_url": null,
      "linkedin_url": "http://www.linkedin.com/company/coloopai",
      "twitter_url": null,
      "facebook_url": null,
      "primary_phone": {},
      "languages": [],
      "alexa_ranking": null,
      "phone": null,
      "linkedin_uid": "93372710",
      "founded_year": null,
      "publicly_traded_symbol": null,
      "publicly_traded_exchange": null,
      "logo_url": "https://zenprospect-production.s3.amazonaws.com/uploads/pictures/68a4086126ae0f0001efe077/picture",
      "crunchbase_url": null,
      "primary_domain": "coloop.ai",
      "owned_by_organization_id": null,
      "organization_revenue_printed": null,
      "organization_revenue": 0.0,
      "intent_strength": null,
      "show_intent": true,
      "has_intent_signal_account": false,
      "intent_signal_account": null,
      "organization_headcount_six_month_growth": 0.0,
      "organization_headcount_twelve_month_growth": 0.0,
      "organization_headcount_twenty_four_month_growth": null
    }
  ],
  "model_ids": [
    "64523d489cad5100a35209c7"
  ],
  "num_fetch_result": null,
  "derived_params": null
}{
  "breadcrumbs": [
    {
      "label": "Company Name",
      "signal_field_name": "q_organization_name",
      "value": "Bild Ai",
      "display_name": "Bild Ai"
    }
  ],
  "partial_results_only": false,
  "has_join": false,
  "disable_eu_prospecting": false,
  "partial_results_limit": 10000,
  "pagination": {
    "page": 1,
    "per_page": 1,
    "total_entries": 1,
    "total_pages": 1
  },
  "accounts": [],
  "organizations": [
    {
      "id": "679059f0fd228301b2234207",
      "name": "Bild AI",
      "website_url": "http://www.bild.ai",
      "blog_url": null,
      "angellist_url": null,
      "linkedin_url": "http://www.linkedin.com/company/bild-ai",
      "twitter_url": null,
      "facebook_url": null,
      "primary_phone": {},
      "languages": [],
      "alexa_ranking": null,
      "phone": null,
      "linkedin_uid": "105593757",
      "founded_year": null,
      "publicly_traded_symbol": null,
      "publicly_traded_exchange": null,
      "logo_url": "https://zenprospect-production.s3.amazonaws.com/uploads/pictures/68a803286870dd0001926a22/picture",
      "crunchbase_url": null,
      "primary_domain": "bild.ai",
      "owned_by_organization_id": null,
      "organization_revenue_printed": null,
      "organization_revenue": 0.0,
      "intent_strength": null,
      "show_intent": true,
      "has_intent_signal_account": false,
      "intent_signal_account": null,
      "organization_headcount_six_month_growth": 0.5,
      "organization_headcount_twelve_month_growth": null,
      "organization_headcount_twenty_four_month_growth": null
    }
  ],
  "model_ids": [
    "679059f0fd228301b2234207"
  ],
  "num_fetch_result": null,
  "derived_params": null
}