[
  {
    "breadcrumbs": [
      {
        "label": "Company Name",
        "signal_field_name": "q_organization_name",
        "value": "socratix ai",
        "display_name": "socratix ai"
      }
    ],
    "partial_results_only": false,
    "has_join": false,
    "disable_eu_prospecting": false,
    "partial_results_limit": 10000,
    "pagination": {
      "page": 1,
      "per_page": 1,
      "total_entries": 2,
      "total_pages": 2
    },
    "accounts": [],
    "organizations": [
      {
        "id": "68642a1665412f000dc3bd13",
        "name": "Socratix AI (YC S25)",
        "website_url": "http://www.getsocratix.ai",
        "blog_url": null,
        "angellist_url": null,
        "linkedin_url": "http://www.linkedin.com/company/socratix-ai",
        "twitter_url": null,
        "facebook_url": null,
        "primary_phone": {},
        "languages": [],
        "alexa_ranking": null,
        "phone": null,
        "linkedin_uid": "107129095",
        "founded_year": null,
        "publicly_traded_symbol": null,
        "publicly_traded_exchange": null,
        "logo_url": "https://zenprospect-production.s3.amazonaws.com/uploads/pictures/68e4f2b580f9f60001e06412/picture",
        "crunchbase_url": null,
        "primary_domain": "getsocratix.ai",
        "sic_codes": [
          "7375"
        ],
        "naics_codes": [
          "54161"
        ],
        "owned_by_organization_id": null,
        "organization_revenue_printed": null,
        "organization_revenue": 0.0,
        "intent_strength": null,
        "show_intent": true,
        "has_intent_signal_account": false,
        "intent_signal_account": null,
        "organization_headcount_six_month_growth": null,
        "organization_headcount_twelve_month_growth": null,
        "organization_headcount_twenty_four_month_growth": null
      }
    ],
    "model_ids": [
      "68642a1665412f000dc3bd13"
    ],
    "num_fetch_result": null,
    "derived_params": {
      "recommendation_config_id": "68a2f508398f2a00015ce352"
    }
  }
][
  {
    "breadcrumbs": [
      {
        "label": "Company Name",
        "signal_field_name": "q_organization_name",
        "value": "socratix ai",
        "display_name": "socratix ai"
      }
    ],
    "partial_results_only": false,
    "has_join": false,
    "disable_eu_prospecting": false,
    "partial_results_limit": 10000,
    "pagination": {
      "page": 1,
      "per_page": 1,
      "total_entries": 2,
      "total_pages": 2
    },
    "accounts": [],
    "organizations": [
      {
        "id": "68642a1665412f000dc3bd13",
        "name": "Socratix AI (YC S25)",
        "website_url": "http://www.getsocratix.ai",
        "blog_url": null,
        "angellist_url": null,
        "linkedin_url": "http://www.linkedin.com/company/socratix-ai",
        "twitter_url": null,
        "facebook_url": null,
        "primary_phone": {},
        "languages": [],
        "alexa_ranking": null,
        "phone": null,
        "linkedin_uid": "107129095",
        "founded_year": null,
        "publicly_traded_symbol": null,
        "publicly_traded_exchange": null,
        "logo_url": "https://zenprospect-production.s3.amazonaws.com/uploads/pictures/68e4f2b580f9f60001e06412/picture",
        "crunchbase_url": null,
        "primary_domain": "getsocratix.ai",
        "sic_codes": [
          "7375"
        ],
        "naics_codes": [
          "54161"
        ],
        "owned_by_organization_id": null,
        "organization_revenue_printed": null,
        "organization_revenue": 0.0,
        "intent_strength": null,
        "show_intent": true,
        "has_intent_signal_account": false,
        "intent_signal_account": null,
        "organization_headcount_six_month_growth": null,
        "organization_headcount_twelve_month_growth": null,
        "organization_headcount_twenty_four_month_growth": null
      }
    ],
    "model_ids": [
      "68642a1665412f000dc3bd13"
    ],
    "num_fetch_result": null,
    "derived_params": {
      "recommendation_config_id": "68a2f508398f2a00015ce352"
    }
  }
][
  {
    "breadcrumbs": [
      {
        "label": "Company Name",
        "signal_field_name": "q_organization_name",
        "value": "socratix ai",
        "display_name": "socratix ai"
      }
    ],
    "partial_results_only": false,
    "has_join": false,
    "disable_eu_prospecting": false,
    "partial_results_limit": 10000,
    "pagination": {
      "page": 1,
      "per_page": 1,
      "total_entries": 2,
      "total_pages": 2
    },
    "accounts": [],
    "organizations": [
      {
        "id": "68642a1665412f000dc3bd13",
        "name": "Socratix AI (YC S25)",
        "website_url": "http://www.getsocratix.ai",
        "blog_url": null,
        "angellist_url": null,
        "linkedin_url": "http://www.linkedin.com/company/socratix-ai",
        "twitter_url": null,
        "facebook_url": null,
        "primary_phone": {},
        "languages": [],
        "alexa_ranking": null,
        "phone": null,
        "linkedin_uid": "107129095",
        "founded_year": null,
        "publicly_traded_symbol": null,
        "publicly_traded_exchange": null,
        "logo_url": "https://zenprospect-production.s3.amazonaws.com/uploads/pictures/68e4f2b580f9f60001e06412/picture",
        "crunchbase_url": null,
        "primary_domain": "getsocratix.ai",
        "sic_codes": [
          "7375"
        ],
        "naics_codes": [
          "54161"
        ],
        "owned_by_organization_id": null,
        "organization_revenue_printed": null,
        "organization_revenue": 0.0,
        "intent_strength": null,
        "show_intent": true,
        "has_intent_signal_account": false,
        "intent_signal_account": null,
        "organization_headcount_six_month_growth": null,
        "organization_headcount_twelve_month_growth": null,
        "organization_headcount_twenty_four_month_growth": null
      }
    ],
    "model_ids": [
      "68642a1665412f000dc3bd13"
    ],
    "num_fetch_result": null,
    "derived_params": {
      "recommendation_config_id": "68a2f508398f2a00015ce352"
    }
  }
][
  {
    "breadcrumbs": [
      {
        "label": "Company Name",
        "signal_field_name": "q_organization_name",
        "value": "socratix ai",
        "display_name": "socratix ai"
      }
    ],
    "partial_results_only": false,
    "has_join": false,
    "disable_eu_prospecting": false,
    "partial_results_limit": 10000,
    "pagination": {
      "page": 1,
      "per_page": 1,
      "total_entries": 2,
      "total_pages": 2
    },
    "accounts": [],
    "organizations": [
      {
        "id": "68642a1665412f000dc3bd13",
        "name": "Socratix AI (YC S25)",
        "website_url": "http://www.getsocratix.ai",
        "blog_url": null,
        "angellist_url": null,
        "linkedin_url": "http://www.linkedin.com/company/socratix-ai",
        "twitter_url": null,
        "facebook_url": null,
        "primary_phone": {},
        "languages": [],
        "alexa_ranking": null,
        "phone": null,
        "linkedin_uid": "107129095",
        "founded_year": null,
        "publicly_traded_symbol": null,
        "publicly_traded_exchange": null,
        "logo_url": "https://zenprospect-production.s3.amazonaws.com/uploads/pictures/68e4f2b580f9f60001e06412/picture",
        "crunchbase_url": null,
        "primary_domain": "getsocratix.ai",
        "sic_codes": [
          "7375"
        ],
        "naics_codes": [
          "54161"
        ],
        "owned_by_organization_id": null,
        "organization_revenue_printed": null,
        "organization_revenue": 0.0,
        "intent_strength": null,
        "show_intent": true,
        "has_intent_signal_account": false,
        "intent_signal_account": null,
        "organization_headcount_six_month_growth": null,
        "organization_headcount_twelve_month_growth": null,
        "organization_headcount_twenty_four_month_growth": null
      }
    ],
    "model_ids": [
      "68642a1665412f000dc3bd13"
    ],
    "num_fetch_result": null,
    "derived_params": {
      "recommendation_config_id": "68a2f508398f2a00015ce352"
    }
  }
][
  {
    "breadcrumbs": [
      {
        "label": "Company Name",
        "signal_field_name": "q_organization_name",
        "value": "socratix ai",
        "display_name": "socratix ai"
      }
    ],
    "partial_results_only": false,
    "has_join": false,
    "disable_eu_prospecting": false,
    "partial_results_limit": 10000,
    "pagination": {
      "page": 1,
      "per_page": 1,
      "total_entries": 2,
      "total_pages": 2
    },
    "accounts": [],
    "organizations": [
      {
        "id": "68642a1665412f000dc3bd13",
        "name": "Socratix AI (YC S25)",
        "website_url": "http://www.getsocratix.ai",
        "blog_url": null,
        "angellist_url": null,
        "linkedin_url": "http://www.linkedin.com/company/socratix-ai",
        "twitter_url": null,
        "facebook_url": null,
        "primary_phone": {},
        "languages": [],
        "alexa_ranking": null,
        "phone": null,
        "linkedin_uid": "107129095",
        "founded_year": null,
        "publicly_traded_symbol": null,
        "publicly_traded_exchange": null,
        "logo_url": "https://zenprospect-production.s3.amazonaws.com/uploads/pictures/68e4f2b580f9f60001e06412/picture",
        "crunchbase_url": null,
        "primary_domain": "getsocratix.ai",
        "sic_codes": [
          "7375"
        ],
        "naics_codes": [
          "54161"
        ],
        "owned_by_organization_id": null,
        "organization_revenue_printed": null,
        "organization_revenue": 0.0,
        "intent_strength": null,
        "show_intent": true,
        "has_intent_signal_account": false,
        "intent_signal_account": null,
        "organization_headcount_six_month_growth": null,
        "organization_headcount_twelve_month_growth": null,
        "organization_headcount_twenty_four_month_growth": null
      }
    ],
    "model_ids": [
      "68642a1665412f000dc3bd13"
    ],
    "num_fetch_result": null,
    "derived_params": {
      "recommendation_config_id": "68a2f508398f2a00015ce352"
    }
  }
][
  {
    "breadcrumbs": [
      {
        "label": "Company Name",
        "signal_field_name": "q_organization_name",
        "value": "socratix ai",
        "display_name": "socratix ai"
      }
    ],
    "partial_results_only": false,
    "has_join": false,
    "disable_eu_prospecting": false,
    "partial_results_limit": 10000,
    "pagination": {
      "page": 1,
      "per_page": 1,
      "total_entries": 2,
      "total_pages": 2
    },
    "accounts": [],
    "organizations": [
      {
        "id": "68642a1665412f000dc3bd13",
        "name": "Socratix AI (YC S25)",
        "website_url": "http://www.getsocratix.ai",
        "blog_url": null,
        "angellist_url": null,
        "linkedin_url": "http://www.linkedin.com/company/socratix-ai",
        "twitter_url": null,
        "facebook_url": null,
        "primary_phone": {},
        "languages": [],
        "alexa_ranking": null,
        "phone": null,
        "linkedin_uid": "107129095",
        "founded_year": null,
        "publicly_traded_symbol": null,
        "publicly_traded_exchange": null,
        "logo_url": "https://zenprospect-production.s3.amazonaws.com/uploads/pictures/68e4f2b580f9f60001e06412/picture",
        "crunchbase_url": null,
        "primary_domain": "getsocratix.ai",
        "sic_codes": [
          "7375"
        ],
        "naics_codes": [
          "54161"
        ],
        "owned_by_organization_id": null,
        "organization_revenue_printed": null,
        "organization_revenue": 0.0,
        "intent_strength": null,
        "show_intent": true,
        "has_intent_signal_account": false,
        "intent_signal_account": null,
        "organization_headcount_six_month_growth": null,
        "organization_headcount_twelve_month_growth": null,
        "organization_headcount_twenty_four_month_growth": null
      }
    ],
    "model_ids": [
      "68642a1665412f000dc3bd13"
    ],
    "num_fetch_result": null,
    "derived_params": {
      "recommendation_config_id": "68a2f508398f2a00015ce352"
    }
  }
][
  {
    "breadcrumbs": [
      {
        "label": "Company Name",
        "signal_field_name": "q_organization_name",
        "value": "socratix ai",
        "display_name": "socratix ai"
      }
    ],
    "partial_results_only": false,
    "has_join": false,
    "disable_eu_prospecting": false,
    "partial_results_limit": 10000,
    "pagination": {
      "page": 1,
      "per_page": 1,
      "total_entries": 2,
      "total_pages": 2
    },
    "accounts": [],
    "organizations": [
      {
        "id": "68642a1665412f000dc3bd13",
        "name": "Socratix AI (YC S25)",
        "website_url": "http://www.getsocratix.ai",
        "blog_url": null,
        "angellist_url": null,
        "linkedin_url": "http://www.linkedin.com/company/socratix-ai",
        "twitter_url": null,
        "facebook_url": null,
        "primary_phone": {},
        "languages": [],
        "alexa_ranking": null,
        "phone": null,
        "linkedin_uid": "107129095",
        "founded_year": null,
        "publicly_traded_symbol": null,
        "publicly_traded_exchange": null,
        "logo_url": "https://zenprospect-production.s3.amazonaws.com/uploads/pictures/68e4f2b580f9f60001e06412/picture",
        "crunchbase_url": null,
        "primary_domain": "getsocratix.ai",
        "sic_codes": [
          "7375"
        ],
        "naics_codes": [
          "54161"
        ],
        "owned_by_organization_id": null,
        "organization_revenue_printed": null,
        "organization_revenue": 0.0,
        "intent_strength": null,
        "show_intent": true,
        "has_intent_signal_account": false,
        "intent_signal_account": null,
        "organization_headcount_six_month_growth": null,
        "organization_headcount_twelve_month_growth": null,
        "organization_headcount_twenty_four_month_growth": null
      }
    ],
    "model_ids": [
      "68642a1665412f000dc3bd13"
    ],
    "num_fetch_result": null,
    "derived_params": {
      "recommendation_config_id": "68a2f508398f2a00015ce352"
    }
  }
]